************************************************************************************************************************
***             WIDEN YOUR WINDOW TO 120 CHARACTERS.  Use 'enscript -r -fCourier9' to print this document            ***
************************************************************************************************************************

---------------------------------------------- PETSc Performance Summary: ----------------------------------------------

./ex5adj_avx512 on a arch-theta-avx512-opt named nid00000 with 64 processors, by hongzh Wed Dec  6 16:47:32 2017
Using Petsc Development GIT revision: v3.8-237-g6c38c2b101  GIT Date: 2017-11-29 17:12:38 -0600

                         Max       Max/Min        Avg      Total 
Time (sec):           8.658e+01      1.00020   8.657e+01
Objects:              2.140e+02      1.00000   2.140e+02
Flop:                 2.178e+10      1.00000   2.178e+10  1.394e+12
Flop/sec:            2.516e+08      1.00020   2.516e+08  1.610e+10
MPI Messages:         1.025e+04      1.00000   1.025e+04  6.557e+05
MPI Message Lengths:  5.504e+07      1.00000   5.372e+03  3.523e+09
MPI Reductions:       1.133e+03      1.00000

Flop counting convention: 1 flop = 1 real number operation of type (multiply/divide/add/subtract)
                            e.g., VecAXPY() for real vectors of length N --> 2N flop
                            and VecAXPY() for complex vectors of length N --> 8N flop

Summary of Stages:   ----- Time ------  ----- Flop -----  --- Messages ---  -- Message Lengths --  -- Reductions --
                        Avg     %Total     Avg     %Total   counts   %Total     Avg         %Total   counts   %Total 
 0:      Main Stage: 8.6565e+01 100.0%  1.3939e+12 100.0%  6.557e+05 100.0%  5.372e+03      100.0%  1.132e+03  99.9% 

------------------------------------------------------------------------------------------------------------------------
See the 'Profiling' chapter of the users' manual for details on interpreting output.
Phase summary info:
   Count: number of times phase was executed
   Time and Flop: Max - maximum over all processors
                   Ratio - ratio of maximum to minimum over all processors
   Mess: number of messages sent
   Avg. len: average message length (bytes)
   Reduct: number of global reductions
   Global: entire computation
   Stage: stages of a computation. Set stages with PetscLogStagePush() and PetscLogStagePop().
      %T - percent time in this phase         %F - percent flop in this phase
      %M - percent messages in this phase     %L - percent message lengths in this phase
      %R - percent reductions in this phase
   Total Mflop/s: 10e-6 * (sum of flop over all processors)/(max time over all processors)
------------------------------------------------------------------------------------------------------------------------
Event                Count      Time (sec)     Flop                             --- Global ---  --- Stage ---   Total
                   Max Ratio  Max     Ratio   Max  Ratio  Mess   Avg len Reduct  %T %F %M %L %R  %T %F %M %L %R Mflop/s
------------------------------------------------------------------------------------------------------------------------

--- Event Stage 0: Main Stage

VecDot                12 1.0 4.9192e-02 2.2 1.26e+07 1.0 0.0e+00 0.0e+00 1.2e+01  0  0  0  0  1   0  0  0  0  1 16371
VecMDot              366 1.0 5.2191e+00 1.7 1.63e+09 1.0 0.0e+00 0.0e+00 3.7e+02  5  7  0  0 32   5  7  0  0 32 19943
VecNorm              431 1.0 1.0569e+00 1.5 3.48e+08 1.0 0.0e+00 0.0e+00 4.3e+02  1  2  0  0 38   1  2  0  0 38 21081
VecScale             407 1.0 1.4354e+00 1.1 1.61e+08 1.0 0.0e+00 0.0e+00 0.0e+00  2  1  0  0  0   2  1  0  0  0  7200
VecCopy              351 1.0 4.4794e-01 1.5 0.00e+00 0.0 0.0e+00 0.0e+00 0.0e+00  0  0  0  0  0   0  0  0  0  0     0
VecSet              3390 1.0 2.2285e+00 1.9 0.00e+00 0.0 0.0e+00 0.0e+00 0.0e+00  2  0  0  0  0   2  0  0  0  0     0
VecAXPY               53 1.0 1.3301e-01 1.4 4.61e+07 1.0 0.0e+00 0.0e+00 0.0e+00  0  0  0  0  0   0  0  0  0  0 22199
VecAYPX             2208 1.0 2.8302e+00 1.6 9.04e+08 1.0 0.0e+00 0.0e+00 0.0e+00  3  4  0  0  0   3  4  0  0  0 20452
VecAXPBYCZ          1121 1.0 2.4545e+00 2.0 1.84e+09 1.0 0.0e+00 0.0e+00 0.0e+00  3  8  0  0  0   3  8  0  0  0 47861
VecWAXPY              12 1.0 8.0184e-02 1.1 6.29e+06 1.0 0.0e+00 0.0e+00 0.0e+00  0  0  0  0  0   0  0  0  0  0  5022
VecMAXPY             402 1.0 5.5487e+00 1.1 1.92e+09 1.0 0.0e+00 0.0e+00 0.0e+00  6  9  0  0  0   6  9  0  0  0 22097
VecPointwiseMult    2106 1.0 3.9405e+00 1.3 6.39e+08 1.0 0.0e+00 0.0e+00 0.0e+00  4  3  0  0  0   4  3  0  0  0 10375
VecScatterBegin     2694 1.0 4.2902e-01 1.3 0.00e+00 0.0 6.5e+05 5.4e+03 0.0e+00  0  0 99100  0   0  0 99100  0     0
VecScatterEnd       2694 1.0 4.2155e+0012.8 0.00e+00 0.0 0.0e+00 0.0e+00 0.0e+00  1  0  0  0  0   1  0  0  0  0     0
VecReduceArith        24 1.0 2.2743e-02 1.2 2.52e+07 1.0 0.0e+00 0.0e+00 0.0e+00  0  0  0  0  0   0  0  0  0  0 70816
VecReduceComm         12 1.0 6.8276e-0312.8 0.00e+00 0.0 0.0e+00 0.0e+00 1.2e+01  0  0  0  0  1   0  0  0  0  1     0
VecNormalize         402 1.0 2.2198e+00 1.2 4.77e+08 1.0 0.0e+00 0.0e+00 4.0e+02  2  2  0  0 35   2  2  0  0 36 13740
MatMult             2034 1.0 4.4409e+01 1.1 1.32e+10 1.0 5.2e+05 6.3e+03 0.0e+00 47 61 79 93  0  47 61 79 93  0 18993
MatMultAdd           276 1.0 3.4151e+00 1.1 4.07e+08 1.0 5.3e+04 1.5e+03 0.0e+00  4  2  8  2  0   4  2  8  2  0  7627
MatMultTranspose     326 1.0 2.5322e+00 1.4 5.02e+08 1.0 6.3e+04 1.6e+03 0.0e+00  2  2 10  3  0   2  2 10  3  0 12686
MatResidual          276 1.0 5.8213e+00 1.1 1.81e+09 1.0 7.1e+04 6.1e+03 0.0e+00  6  8 11 12  0   6  8 11 12  0 19886
MatAssemblyBegin      41 1.0 4.6708e-0170.2 0.00e+00 0.0 0.0e+00 0.0e+00 8.2e+01  1  0  0  0  7   1  0  0  0  7     0
MatAssemblyEnd        41 1.0 8.3493e-01 1.0 0.00e+00 0.0 2.3e+03 8.8e+02 4.0e+01  1  0  0  0  4   1  0  0  0  4     0
DMCoarsen              2 1.0 2.3545e-02 1.0 0.00e+00 0.0 1.0e+03 3.9e+02 2.2e+01  0  0  0  0  2   0  0  0  0  2     0
DMCreateInterp         2 1.0 2.4397e-01 1.0 2.95e+06 1.0 1.9e+03 5.1e+02 5.0e+01  0  0  0  0  4   0  0  0  0  4   774
TSStep                 5 1.0 8.5430e+01 1.0 2.18e+10 1.0 6.6e+05 5.4e+03 1.1e+03 99100100100 98  99100100100 98 16316
TSFunctionEval        22 1.0 2.4007e-01 1.2 9.23e+07 1.0 5.6e+03 6.1e+03 0.0e+00  0  0  1  1  0   0  0  1  1  0 24600
TSJacobianEval        36 1.0 1.0901e+01 1.0 7.84e+07 1.0 9.2e+03 3.6e+03 7.2e+01 13  0  1  1  6  13  0  1  1  6   461
SNESSolve              5 1.0 8.3656e+01 1.0 2.18e+10 1.0 6.5e+05 5.4e+03 1.1e+03 97100100100 97  97100100100 97 16644
SNESFunctionEval      17 1.0 2.3797e-01 1.1 9.80e+07 1.0 4.4e+03 6.1e+03 0.0e+00  0  0  1  1  0   0  0  1  1  0 26368
SNESJacobianEval      36 1.0 1.0903e+01 1.0 7.84e+07 1.0 9.2e+03 3.6e+03 7.4e+01 13  0  1  1  7  13  0  1  1  7   460
SNESLineSearch        12 1.0 8.9414e-01 1.0 2.71e+08 1.0 6.1e+03 7.2e+03 4.8e+01  1  1  1  1  4   1  1  1  1  4 19364
KSPGMRESOrthog       366 1.0 9.9912e+00 1.3 3.25e+09 1.0 0.0e+00 0.0e+00 3.7e+02 10 15  0  0 32  10 15  0  0 32 20835
KSPSetUp              86 1.0 1.5780e-01 1.0 0.00e+00 0.0 0.0e+00 0.0e+00 2.8e+01  0  0  0  0  2   0  0  0  0  2     0
KSPSolve              12 1.0 7.4377e+01 1.0 2.14e+10 1.0 6.4e+05 5.4e+03 1.0e+03 86 98 98 98 89  86 98 98 98 90 18402
PCSetUp               48 1.0 4.1352e+00 1.0 1.19e+08 1.0 1.9e+04 1.7e+03 1.9e+02  5  1  3  1 16   5  1  3  1 16  1838
PCSetUpOnBlocks      714 1.0 3.6288e-01 1.0 0.00e+00 0.0 0.0e+00 0.0e+00 0.0e+00  0  0  0  0  0   0  0  0  0  0     0
PCApply              138 1.0 6.0815e+01 1.0 1.81e+10 1.0 5.9e+05 5.3e+03 5.3e+02 70 83 90 89 47  70 83 90 89 47 19077
------------------------------------------------------------------------------------------------------------------------

Memory usage is given in bytes:

Object Type          Creations   Destructions     Memory  Descendants' Mem.
Reports information only for process 0.

--- Event Stage 0: Main Stage

              Vector   115            115    236774128     0.
      Vector Scatter    10             10      2763232     0.
              Matrix    21             21    124023892     0.
    Distributed Mesh     4              4        20240     0.
           Index Set    20             20      1441104     0.
   IS L to G Mapping     3              3      1392584     0.
   Star Forest Graph     8              8         6464     0.
     Discrete System     4              4         3588     0.
             TSAdapt     1              1         1216     0.
                  TS     1              1         2040     0.
                DMTS     1              1          736     0.
                SNES     1              1         1364     0.
      SNESLineSearch     1              1          992     0.
              DMSNES     4              4         2656     0.
       Krylov Solver     9              9        86120     0.
     DMKSP interface     3              3         1944     0.
      Preconditioner     7              7         6672     0.
              Viewer     1              0            0     0.
========================================================================================================================
Average time to get PetscTime(): 3.8147e-07
Average time for MPI_Barrier(): 1.05858e-05
Average time for zero size MPI_Send(): 2.73585e-05
#PETSc Option Table entries:
-da_grid_x 4096
-da_grid_y 4096
-dm_mat_type aij
-forwardonly
-log_view :logs_theta_flat/ex5adj_avx512_theta_flat_mg_aij_fwdonly_xy4096_n64.log
-malloc_test
-mat_no_inode
-mg_coarse_pc_type bjacobi
-mg_coarse_sub_pc_type jacobi
-mg_levels_pc_type bjacobi
-mg_levels_sub_pc_type jacobi
-pc_mg_levels 3
-pc_type mg
-ts_dt 1
-ts_max_steps 5
#End of PETSc Option Table entries
Compiled without FORTRAN kernels
Compiled with full precision matrices (default)
sizeof(short) 2 sizeof(int) 4 sizeof(long) 8 sizeof(void*) 8 sizeof(PetscScalar) 8 sizeof(PetscInt) 4
Configure options: --LIBS=-lstdc++ --known-bits-per-byte=8 --known-has-attribute-aligned=1 --known-level1-dcache-assoc=8 --known-level1-dcache-linesize=64 --known-level1-dcache-size=32768 --known-memcmp-ok=1 --known-mklspblas-supports-zero-based=0 --known-mpi-c-double-complex=1 --known-mpi-int64_t=1 --known-mpi-long-double=1 --known-mpi-shared-libraries=0 --known-sdot-returns-double=0 --known-sizeof-MPI_Comm=4 --known-sizeof-MPI_Fint=4 --known-sizeof-char=1 --known-sizeof-double=8 --known-sizeof-float=4 --known-sizeof-int=4 --known-sizeof-long-long=8 --known-sizeof-long=8 --known-sizeof-short=2 --known-sizeof-size_t=8 --known-sizeof-void-p=8 --known-snrm2-returns-double=0 --with-batch=1 --with-blaslapack-dir=/opt/intel/compilers_and_libraries/linux/mkl/lib/intel64 --with-cc=cc --with-clib-autodetect=0 --with-cxx=CC --with-cxxlib-autodetect=0 --with-debugging=0 --with-fc=ftn --with-fortranlib-autodetect=0 --with-memalign=64 --with-mpiexec=aprun COPTFLAGS="-g -O3 -xMIC-AVX512" CXXOPTFLAGS="-g -O3 -xMIC-AVX512" FOPTFLAGS="-g -O3 -xMIC-AVX512" PETSC_ARCH=arch-theta-avx512-opt
-----------------------------------------
Libraries compiled on Thu Nov 30 10:39:46 2017 on thetalogin5 
Machine characteristics: Linux-4.4.74-92.38-default-x86_64-with-SuSE-12-x86_64
Using PETSc directory: /home/hongzh/Projects/petsc
Using PETSc arch: arch-theta-avx512-opt
-----------------------------------------

Using C compiler: cc  -fPIC  -g -O3 -xMIC-AVX512  ${COPTFLAGS} ${CFLAGS}
Using Fortran compiler: ftn  -fPIC -g -O3 -xMIC-AVX512   ${FOPTFLAGS} ${FFLAGS} 
-----------------------------------------

Using include paths: -I/home/hongzh/Projects/petsc/arch-theta-avx512-opt/include -I/home/hongzh/Projects/petsc/include -I/home/hongzh/Projects/petsc/include -I/home/hongzh/Projects/petsc/arch-theta-avx512-opt/include
-----------------------------------------

Using C linker: cc
Using Fortran linker: ftn
Using libraries: -Wl,-rpath,/home/hongzh/Projects/petsc/arch-theta-avx512-opt/lib -L/home/hongzh/Projects/petsc/arch-theta-avx512-opt/lib -lpetsc -Wl,-rpath,/opt/intel/compilers_and_libraries/linux/mkl/lib/intel64 -L/opt/intel/compilers_and_libraries/linux/mkl/lib/intel64 -lmkl_intel_lp64 -lmkl_sequential -lmkl_core -lpthread -lX11 -ldl -lstdc++
-----------------------------------------

