************************************************************************************************************************
***             WIDEN YOUR WINDOW TO 120 CHARACTERS.  Use 'enscript -r -fCourier9' to print this document            ***
************************************************************************************************************************

---------------------------------------------- PETSc Performance Summary: ----------------------------------------------

./ex5adj_avx512 on a arch-theta-avx512-opt named nid03834 with 8 processors, by hongzh Wed Dec  6 16:41:57 2017
Using Petsc Development GIT revision: v3.8-237-g6c38c2b101  GIT Date: 2017-11-29 17:12:38 -0600

                         Max       Max/Min        Avg      Total 
Time (sec):           1.493e+02      1.00014   1.493e+02
Objects:              2.140e+02      1.00000   2.140e+02
Flop:                 4.691e+10      1.00000   4.691e+10  3.753e+11
Flop/sec:            3.142e+08      1.00014   3.142e+08  2.514e+09
MPI Messages:         8.751e+03      1.00000   8.751e+03  7.001e+04
MPI Message Lengths:  8.881e+07      1.00000   1.015e+04  7.105e+08
MPI Reductions:       1.300e+03      1.00000

Flop counting convention: 1 flop = 1 real number operation of type (multiply/divide/add/subtract)
                            e.g., VecAXPY() for real vectors of length N --> 2N flop
                            and VecAXPY() for complex vectors of length N --> 8N flop

Summary of Stages:   ----- Time ------  ----- Flop -----  --- Messages ---  -- Message Lengths --  -- Reductions --
                        Avg     %Total     Avg     %Total   counts   %Total     Avg         %Total   counts   %Total 
 0:      Main Stage: 1.4930e+02 100.0%  3.7528e+11 100.0%  7.001e+04 100.0%  1.015e+04      100.0%  1.299e+03  99.9% 

------------------------------------------------------------------------------------------------------------------------
See the 'Profiling' chapter of the users' manual for details on interpreting output.
Phase summary info:
   Count: number of times phase was executed
   Time and Flop: Max - maximum over all processors
                   Ratio - ratio of maximum to minimum over all processors
   Mess: number of messages sent
   Avg. len: average message length (bytes)
   Reduct: number of global reductions
   Global: entire computation
   Stage: stages of a computation. Set stages with PetscLogStagePush() and PetscLogStagePop().
      %T - percent time in this phase         %F - percent flop in this phase
      %M - percent messages in this phase     %L - percent message lengths in this phase
      %R - percent reductions in this phase
   Total Mflop/s: 10e-6 * (sum of flop over all processors)/(max time over all processors)
------------------------------------------------------------------------------------------------------------------------
Event                Count      Time (sec)     Flop                             --- Global ---  --- Stage ---   Total
                   Max Ratio  Max     Ratio   Max  Ratio  Mess   Avg len Reduct  %T %F %M %L %R  %T %F %M %L %R Mflop/s
------------------------------------------------------------------------------------------------------------------------

--- Event Stage 0: Main Stage

VecDot                15 1.0 3.6191e-02 1.0 3.15e+07 1.0 0.0e+00 0.0e+00 1.5e+01  0  0  0  0  1   0  0  0  0  1  6954
VecMDot              430 1.0 2.7270e+00 1.0 3.53e+09 1.0 0.0e+00 0.0e+00 4.3e+02  2  8  0  0 33   2  8  0  0 33 10344
VecNorm              510 1.0 6.0715e-01 1.1 8.10e+08 1.0 0.0e+00 0.0e+00 5.1e+02  0  2  0  0 39   0  2  0  0 39 10673
VecScale             480 1.0 6.9718e-01 1.0 3.74e+08 1.0 0.0e+00 0.0e+00 0.0e+00  0  1  0  0  0   0  1  0  0  0  4286
VecCopy              380 1.0 4.4390e-01 1.0 0.00e+00 0.0 0.0e+00 0.0e+00 0.0e+00  0  0  0  0  0   0  0  0  0  0     0
VecSet              3654 1.0 1.9179e+00 1.0 0.00e+00 0.0 0.0e+00 0.0e+00 0.0e+00  1  0  0  0  0   1  0  0  0  0     0
VecAXPY               65 1.0 1.2546e-01 1.1 1.13e+08 1.0 0.0e+00 0.0e+00 0.0e+00  0  0  0  0  0   0  0  0  0  0  7188
VecAYPX             2320 1.0 3.8605e+00 1.0 1.90e+09 1.0 0.0e+00 0.0e+00 0.0e+00  3  4  0  0  0   3  4  0  0  0  3938
VecAXPBYCZ          1180 1.0 2.7462e+00 1.0 3.86e+09 1.0 0.0e+00 0.0e+00 0.0e+00  2  8  0  0  0   2  8  0  0  0 11256
VecWAXPY              15 1.0 5.2873e-02 1.0 1.57e+07 1.0 0.0e+00 0.0e+00 0.0e+00  0  0  0  0  0   0  0  0  0  0  2380
VecMAXPY             475 1.0 3.5635e+00 1.0 4.19e+09 1.0 0.0e+00 0.0e+00 0.0e+00  2  9  0  0  0   2  9  0  0  0  9410
VecPointwiseMult    2275 1.0 4.5999e+00 1.0 1.38e+09 1.0 0.0e+00 0.0e+00 0.0e+00  3  3  0  0  0   3  3  0  0  0  2398
VecScatterBegin     2897 1.0 3.7807e-01 1.1 0.00e+00 0.0 7.0e+04 1.0e+04 0.0e+00  0  0 99100  0   0  0 99100  0     0
VecScatterEnd       2897 1.0 7.0276e-01 2.6 0.00e+00 0.0 0.0e+00 0.0e+00 0.0e+00  0  0  0  0  0   0  0  0  0  0     0
VecReduceArith        30 1.0 4.0961e-02 1.0 6.29e+07 1.0 0.0e+00 0.0e+00 0.0e+00  0  0  0  0  0   0  0  0  0  0 12288
VecReduceComm         15 1.0 4.9028e-03 3.8 0.00e+00 0.0 0.0e+00 0.0e+00 1.5e+01  0  0  0  0  1   0  0  0  0  1     0
VecNormalize         475 1.0 1.1111e+00 1.0 1.10e+09 1.0 0.0e+00 0.0e+00 4.8e+02  1  2  0  0 37   1  2  0  0 37  7955
MatMult             2185 1.0 8.4712e+01 1.0 2.83e+10 1.0 5.2e+04 1.3e+04 0.0e+00 57 60 75 93  0  57 60 75 93  0  2672
MatMultAdd           290 1.0 6.4208e+00 1.0 8.55e+08 1.0 7.0e+03 2.3e+03 0.0e+00  4  2 10  2  0   4  2 10  2  0  1066
MatMultTranspose     352 1.0 3.9061e+00 1.0 1.09e+09 1.0 8.4e+03 2.4e+03 0.0e+00  3  2 12  3  0   3  2 12  3  0  2235
MatResidual          290 1.0 1.1303e+01 1.0 3.80e+09 1.0 7.0e+03 1.2e+04 0.0e+00  8  8 10 12  0   8  8 10 12  0  2690
MatAssemblyBegin      50 1.0 1.0757e-01 1.7 0.00e+00 0.0 0.0e+00 0.0e+00 1.0e+02  0  0  0  0  8   0  0  0  0  8     0
MatAssemblyEnd        50 1.0 1.8373e+00 1.0 0.00e+00 0.0 2.4e+02 1.6e+03 4.0e+01  1  0  0  0  3   1  0  0  0  3     0
DMCoarsen              2 1.0 1.3779e-02 1.0 0.00e+00 0.0 9.6e+01 7.7e+02 2.2e+01  0  0  0  0  2   0  0  0  0  2     0
DMCreateInterp         2 1.0 4.0863e-01 1.0 5.90e+06 1.0 2.4e+02 7.7e+02 5.0e+01  0  0  0  0  4   0  0  0  0  4   115
TSStep                 5 1.0 1.4886e+02 1.0 4.69e+10 1.0 7.0e+04 1.0e+04 1.3e+03100100100100 98 100100100100 98  2521
TSFunctionEval        25 1.0 3.2992e-01 1.0 2.10e+08 1.0 6.0e+02 1.2e+04 0.0e+00  0  0  1  1  0   0  0  1  1  0  5085
TSJacobianEval        45 1.0 2.6366e+01 1.0 1.96e+08 1.0 1.1e+03 7.2e+03 9.0e+01 18  0  2  1  7  18  0  2  1  7    60
SNESSolve              5 1.0 1.4573e+02 1.0 4.69e+10 1.0 7.0e+04 1.0e+04 1.3e+03 98100100100 97  98100100100 97  2573
SNESFunctionEval      20 1.0 3.2495e-01 1.0 2.31e+08 1.0 4.8e+02 1.2e+04 0.0e+00  0  0  1  1  0   0  0  1  1  0  5679
SNESJacobianEval      45 1.0 2.6367e+01 1.0 1.96e+08 1.0 1.1e+03 7.2e+03 9.2e+01 18  0  2  1  7  18  0  2  1  7    60
SNESLineSearch        15 1.0 1.4003e+00 1.0 6.76e+08 1.0 7.2e+02 1.4e+04 6.0e+01  1  1  1  1  5   1  1  1  1  5  3864
KSPGMRESOrthog       430 1.0 5.7342e+00 1.0 7.05e+09 1.0 0.0e+00 0.0e+00 4.3e+02  4 15  0  0 33   4 15  0  0 33  9838
KSPSetUp             107 1.0 1.2597e-01 1.0 0.00e+00 0.0 0.0e+00 0.0e+00 2.8e+01  0  0  0  0  2   0  0  0  0  2     0
KSPSolve              15 1.0 1.2411e+02 1.0 4.60e+10 1.0 6.9e+04 1.0e+04 1.2e+03 83 98 98 97 89  83 98 98 97 90  2962
PCSetUp               60 1.0 9.2959e+00 1.0 2.95e+08 1.0 2.6e+03 2.9e+03 2.0e+02  6  1  4  1 15   6  1  4  1 15   254
PCSetUpOnBlocks      755 1.0 8.4559e-01 1.0 0.00e+00 0.0 0.0e+00 0.0e+00 0.0e+00  1  0  0  0  0   1  0  0  0  0     0
PCApply              145 1.0 1.0487e+02 1.0 3.96e+10 1.0 6.3e+04 1.0e+04 6.6e+02 70 84 90 89 51  70 84 90 89 51  3020
------------------------------------------------------------------------------------------------------------------------

Memory usage is given in bytes:

Object Type          Creations   Destructions     Memory  Descendants' Mem.
Reports information only for process 0.

--- Event Stage 0: Main Stage

              Vector   115            115    473294576     0.
      Vector Scatter    10             10      5515744     0.
              Matrix    21             21    247968340     0.
    Distributed Mesh     4              4        20240     0.
           Index Set    20             20      2841936     0.
   IS L to G Mapping     3              3      2776008     0.
   Star Forest Graph     8              8         6464     0.
     Discrete System     4              4         3588     0.
             TSAdapt     1              1         1216     0.
                  TS     1              1         2040     0.
                DMTS     1              1          736     0.
                SNES     1              1         1364     0.
      SNESLineSearch     1              1          992     0.
              DMSNES     4              4         2656     0.
       Krylov Solver     9              9        86120     0.
     DMKSP interface     3              3         1944     0.
      Preconditioner     7              7         6672     0.
              Viewer     1              0            0     0.
========================================================================================================================
Average time to get PetscTime(): 6.91414e-07
Average time for MPI_Barrier(): 3.19481e-06
Average time for zero size MPI_Send(): 0.000128001
#PETSc Option Table entries:
-da_grid_x 2048
-da_grid_y 2048
-dm_mat_type aij
-forwardonly
-log_view :logs_theta_cache/ex5adj_avx512_theta_cache_mg_aij_fwdonly_xy2048_n8.log
-malloc_test
-mat_no_inode
-mg_coarse_pc_type bjacobi
-mg_coarse_sub_pc_type jacobi
-mg_levels_pc_type bjacobi
-mg_levels_sub_pc_type jacobi
-pc_mg_levels 3
-pc_type mg
-ts_dt 1
-ts_max_steps 5
#End of PETSc Option Table entries
Compiled without FORTRAN kernels
Compiled with full precision matrices (default)
sizeof(short) 2 sizeof(int) 4 sizeof(long) 8 sizeof(void*) 8 sizeof(PetscScalar) 8 sizeof(PetscInt) 4
Configure options: --LIBS=-lstdc++ --known-bits-per-byte=8 --known-has-attribute-aligned=1 --known-level1-dcache-assoc=8 --known-level1-dcache-linesize=64 --known-level1-dcache-size=32768 --known-memcmp-ok=1 --known-mklspblas-supports-zero-based=0 --known-mpi-c-double-complex=1 --known-mpi-int64_t=1 --known-mpi-long-double=1 --known-mpi-shared-libraries=0 --known-sdot-returns-double=0 --known-sizeof-MPI_Comm=4 --known-sizeof-MPI_Fint=4 --known-sizeof-char=1 --known-sizeof-double=8 --known-sizeof-float=4 --known-sizeof-int=4 --known-sizeof-long-long=8 --known-sizeof-long=8 --known-sizeof-short=2 --known-sizeof-size_t=8 --known-sizeof-void-p=8 --known-snrm2-returns-double=0 --with-batch=1 --with-blaslapack-dir=/opt/intel/compilers_and_libraries/linux/mkl/lib/intel64 --with-cc=cc --with-clib-autodetect=0 --with-cxx=CC --with-cxxlib-autodetect=0 --with-debugging=0 --with-fc=ftn --with-fortranlib-autodetect=0 --with-memalign=64 --with-mpiexec=aprun COPTFLAGS="-g -O3 -xMIC-AVX512" CXXOPTFLAGS="-g -O3 -xMIC-AVX512" FOPTFLAGS="-g -O3 -xMIC-AVX512" PETSC_ARCH=arch-theta-avx512-opt
-----------------------------------------
Libraries compiled on Thu Nov 30 10:39:46 2017 on thetalogin5 
Machine characteristics: Linux-4.4.74-92.38-default-x86_64-with-SuSE-12-x86_64
Using PETSc directory: /home/hongzh/Projects/petsc
Using PETSc arch: arch-theta-avx512-opt
-----------------------------------------

Using C compiler: cc  -fPIC  -g -O3 -xMIC-AVX512  ${COPTFLAGS} ${CFLAGS}
Using Fortran compiler: ftn  -fPIC -g -O3 -xMIC-AVX512   ${FOPTFLAGS} ${FFLAGS} 
-----------------------------------------

Using include paths: -I/home/hongzh/Projects/petsc/arch-theta-avx512-opt/include -I/home/hongzh/Projects/petsc/include -I/home/hongzh/Projects/petsc/include -I/home/hongzh/Projects/petsc/arch-theta-avx512-opt/include
-----------------------------------------

Using C linker: cc
Using Fortran linker: ftn
Using libraries: -Wl,-rpath,/home/hongzh/Projects/petsc/arch-theta-avx512-opt/lib -L/home/hongzh/Projects/petsc/arch-theta-avx512-opt/lib -lpetsc -Wl,-rpath,/opt/intel/compilers_and_libraries/linux/mkl/lib/intel64 -L/opt/intel/compilers_and_libraries/linux/mkl/lib/intel64 -lmkl_intel_lp64 -lmkl_sequential -lmkl_core -lpthread -lX11 -ldl -lstdc++
-----------------------------------------

