************************************************************************************************************************
***             WIDEN YOUR WINDOW TO 120 CHARACTERS.  Use 'enscript -r -fCourier9' to print this document            ***
************************************************************************************************************************

---------------------------------------------- PETSc Performance Summary: ----------------------------------------------

./ex5adj_avx512 on a arch-theta-avx512-opt named nid03834 with 8 processors, by hongzh Wed Dec  6 16:35:09 2017
Using Petsc Development GIT revision: v3.8-237-g6c38c2b101  GIT Date: 2017-11-29 17:12:38 -0600

                         Max       Max/Min        Avg      Total 
Time (sec):           3.888e+01      1.00052   3.886e+01
Objects:              2.140e+02      1.00000   2.140e+02
Flop:                 1.186e+10      1.00000   1.186e+10  9.489e+10
Flop/sec:            3.053e+08      1.00052   3.052e+08  2.442e+09
MPI Messages:         8.853e+03      1.00000   8.853e+03  7.082e+04
MPI Message Lengths:  4.493e+07      1.00000   5.075e+03  3.594e+08
MPI Reductions:       1.304e+03      1.00000

Flop counting convention: 1 flop = 1 real number operation of type (multiply/divide/add/subtract)
                            e.g., VecAXPY() for real vectors of length N --> 2N flop
                            and VecAXPY() for complex vectors of length N --> 8N flop

Summary of Stages:   ----- Time ------  ----- Flop -----  --- Messages ---  -- Message Lengths --  -- Reductions --
                        Avg     %Total     Avg     %Total   counts   %Total     Avg         %Total   counts   %Total 
 0:      Main Stage: 3.8858e+01 100.0%  9.4889e+10 100.0%  7.082e+04 100.0%  5.075e+03      100.0%  1.303e+03  99.9% 

------------------------------------------------------------------------------------------------------------------------
See the 'Profiling' chapter of the users' manual for details on interpreting output.
Phase summary info:
   Count: number of times phase was executed
   Time and Flop: Max - maximum over all processors
                   Ratio - ratio of maximum to minimum over all processors
   Mess: number of messages sent
   Avg. len: average message length (bytes)
   Reduct: number of global reductions
   Global: entire computation
   Stage: stages of a computation. Set stages with PetscLogStagePush() and PetscLogStagePop().
      %T - percent time in this phase         %F - percent flop in this phase
      %M - percent messages in this phase     %L - percent message lengths in this phase
      %R - percent reductions in this phase
   Total Mflop/s: 10e-6 * (sum of flop over all processors)/(max time over all processors)
------------------------------------------------------------------------------------------------------------------------
Event                Count      Time (sec)     Flop                             --- Global ---  --- Stage ---   Total
                   Max Ratio  Max     Ratio   Max  Ratio  Mess   Avg len Reduct  %T %F %M %L %R  %T %F %M %L %R Mflop/s
------------------------------------------------------------------------------------------------------------------------

--- Event Stage 0: Main Stage

VecDot                15 1.0 1.0198e-02 1.1 7.86e+06 1.0 0.0e+00 0.0e+00 1.5e+01  0  0  0  0  1   0  0  0  0  1  6169
VecMDot              432 1.0 6.9490e-01 1.0 8.90e+08 1.0 0.0e+00 0.0e+00 4.3e+02  2  8  0  0 33   2  8  0  0 33 10244
VecNorm              512 1.0 1.6785e-01 1.1 2.04e+08 1.0 0.0e+00 0.0e+00 5.1e+02  0  2  0  0 39   0  2  0  0 39  9702
VecScale             482 1.0 2.5178e-01 1.0 9.39e+07 1.0 0.0e+00 0.0e+00 0.0e+00  1  1  0  0  0   1  1  0  0  0  2984
VecCopy              384 1.0 1.1568e-01 1.0 0.00e+00 0.0 0.0e+00 0.0e+00 0.0e+00  0  0  0  0  0   0  0  0  0  0     0
VecSet              3696 1.0 4.9570e-01 1.0 0.00e+00 0.0 0.0e+00 0.0e+00 0.0e+00  1  0  0  0  0   1  0  0  0  0     0
VecAXPY               65 1.0 3.3996e-02 1.0 2.82e+07 1.0 0.0e+00 0.0e+00 0.0e+00  0  0  0  0  0   0  0  0  0  0  6631
VecAYPX             2352 1.0 9.9616e-01 1.0 4.82e+08 1.0 0.0e+00 0.0e+00 0.0e+00  3  4  0  0  0   3  4  0  0  0  3868
VecAXPBYCZ          1196 1.0 7.0309e-01 1.0 9.79e+08 1.0 0.0e+00 0.0e+00 0.0e+00  2  8  0  0  0   2  8  0  0  0 11141
VecWAXPY              15 1.0 1.3612e-02 1.1 3.93e+06 1.0 0.0e+00 0.0e+00 0.0e+00  0  0  0  0  0   0  0  0  0  0  2311
VecMAXPY             477 1.0 8.9460e-01 1.0 1.06e+09 1.0 0.0e+00 0.0e+00 0.0e+00  2  9  0  0  0   2  9  0  0  0  9456
VecPointwiseMult    2301 1.0 1.1751e+00 1.0 3.49e+08 1.0 0.0e+00 0.0e+00 0.0e+00  3  3  0  0  0   3  3  0  0  0  2374
VecScatterBegin     2931 1.0 2.1984e-01 1.1 0.00e+00 0.0 7.0e+04 5.1e+03 0.0e+00  1  0 99100  0   1  0 99100  0     0
VecScatterEnd       2931 1.0 2.5335e-01 1.3 0.00e+00 0.0 0.0e+00 0.0e+00 0.0e+00  1  0  0  0  0   1  0  0  0  0     0
VecReduceArith        30 1.0 1.0546e-02 1.0 1.57e+07 1.0 0.0e+00 0.0e+00 0.0e+00  0  0  0  0  0   0  0  0  0  0 11932
VecReduceComm         15 1.0 1.6129e-03 3.5 0.00e+00 0.0 0.0e+00 0.0e+00 1.5e+01  0  0  0  0  1   0  0  0  0  1     0
VecNormalize         477 1.0 2.9734e-01 1.0 2.78e+08 1.0 0.0e+00 0.0e+00 4.8e+02  1  2  0  0 37   1  2  0  0 37  7475
MatMult             2211 1.0 2.1766e+01 1.0 7.16e+09 1.0 5.3e+04 6.3e+03 0.0e+00 56 60 75 93  0  56 60 75 93  0  2631
MatMultAdd           294 1.0 1.6558e+00 1.0 2.17e+08 1.0 7.1e+03 1.2e+03 0.0e+00  4  2 10  2  0   4  2 10  2  0  1047
MatMultTranspose     356 1.0 1.0167e+00 1.0 2.76e+08 1.0 8.5e+03 1.2e+03 0.0e+00  3  2 12  3  0   3  2 12  3  0  2170
MatResidual          294 1.0 2.9088e+00 1.0 9.63e+08 1.0 7.1e+03 6.1e+03 0.0e+00  7  8 10 12  0   7  8 10 12  0  2650
MatAssemblyBegin      50 1.0 5.5228e-02 1.9 0.00e+00 0.0 0.0e+00 0.0e+00 1.0e+02  0  0  0  0  8   0  0  0  0  8     0
MatAssemblyEnd        50 1.0 4.6872e-01 1.0 0.00e+00 0.0 2.4e+02 8.0e+02 4.0e+01  1  0  0  0  3   1  0  0  0  3     0
DMCoarsen              2 1.0 5.6801e-03 1.0 0.00e+00 0.0 9.6e+01 3.9e+02 2.2e+01  0  0  0  0  2   0  0  0  0  2     0
DMCreateInterp         2 1.0 1.1116e-01 1.0 1.47e+06 1.0 2.4e+02 3.9e+02 5.0e+01  0  0  0  0  4   0  0  0  0  4   106
TSStep                 5 1.0 3.8635e+01 1.0 1.19e+10 1.0 7.1e+04 5.1e+03 1.3e+03 99100100100 98  99100100100 98  2456
TSFunctionEval        25 1.0 9.4238e-02 1.0 5.24e+07 1.0 6.0e+02 6.1e+03 0.0e+00  0  0  1  1  0   0  0  1  1  0  4451
TSJacobianEval        45 1.0 6.6126e+00 1.0 4.90e+07 1.0 1.1e+03 3.6e+03 9.0e+01 17  0  2  1  7  17  0  2  1  7    59
SNESSolve              5 1.0 3.7792e+01 1.0 1.18e+10 1.0 7.1e+04 5.1e+03 1.3e+03 97100100100 97  97100100100 97  2508
SNESFunctionEval      20 1.0 8.6409e-02 1.0 5.77e+07 1.0 4.8e+02 6.1e+03 0.0e+00  0  0  1  1  0   0  0  1  1  0  5339
SNESJacobianEval      45 1.0 6.6139e+00 1.0 4.90e+07 1.0 1.1e+03 3.6e+03 9.2e+01 17  0  2  1  7  17  0  2  1  7    59
SNESLineSearch        15 1.0 3.6405e-01 1.0 1.69e+08 1.0 7.2e+02 7.2e+03 6.0e+01  1  1  1  1  5   1  1  1  1  5  3716
KSPGMRESOrthog       432 1.0 1.4527e+00 1.0 1.78e+09 1.0 0.0e+00 0.0e+00 4.3e+02  4 15  0  0 33   4 15  0  0 33  9801
KSPSetUp             107 1.0 3.3648e-02 1.0 0.00e+00 0.0 0.0e+00 0.0e+00 2.8e+01  0  0  0  0  2   0  0  0  0  2     0
KSPSolve              15 1.0 3.2348e+01 1.0 1.16e+10 1.0 6.9e+04 5.0e+03 1.2e+03 83 98 98 97 89  83 98 98 97 90  2875
PCSetUp               60 1.0 2.3534e+00 1.0 7.39e+07 1.0 2.6e+03 1.5e+03 2.0e+02  6  1  4  1 15   6  1  4  1 15   251
PCSetUpOnBlocks      765 1.0 2.1606e-01 1.0 0.00e+00 0.0 0.0e+00 0.0e+00 0.0e+00  1  0  0  0  0   1  0  0  0  0     0
PCApply              147 1.0 2.7416e+01 1.0 1.00e+10 1.0 6.4e+04 5.0e+03 6.6e+02 71 84 90 89 51  71 84 90 89 51  2918
------------------------------------------------------------------------------------------------------------------------

Memory usage is given in bytes:

Object Type          Creations   Destructions     Memory  Descendants' Mem.
Reports information only for process 0.

--- Event Stage 0: Main Stage

              Vector   115            115    118513904     0.
      Vector Scatter    10             10      1386976     0.
              Matrix    21             21     62051668     0.
    Distributed Mesh     4              4        20240     0.
           Index Set    20             20       740688     0.
   IS L to G Mapping     3              3       700872     0.
   Star Forest Graph     8              8         6464     0.
     Discrete System     4              4         3588     0.
             TSAdapt     1              1         1216     0.
                  TS     1              1         2040     0.
                DMTS     1              1          736     0.
                SNES     1              1         1364     0.
      SNESLineSearch     1              1          992     0.
              DMSNES     4              4         2656     0.
       Krylov Solver     9              9        86120     0.
     DMKSP interface     3              3         1944     0.
      Preconditioner     7              7         6672     0.
              Viewer     1              0            0     0.
========================================================================================================================
Average time to get PetscTime(): 1.90735e-07
Average time for MPI_Barrier(): 3.38554e-06
Average time for zero size MPI_Send(): 0.000102252
#PETSc Option Table entries:
-da_grid_x 1024
-da_grid_y 1024
-dm_mat_type aij
-forwardonly
-log_view :logs_theta_cache/ex5adj_avx512_theta_cache_mg_aij_fwdonly_xy1024_n8.log
-malloc_test
-mat_no_inode
-mg_coarse_pc_type bjacobi
-mg_coarse_sub_pc_type jacobi
-mg_levels_pc_type bjacobi
-mg_levels_sub_pc_type jacobi
-pc_mg_levels 3
-pc_type mg
-ts_dt 1
-ts_max_steps 5
#End of PETSc Option Table entries
Compiled without FORTRAN kernels
Compiled with full precision matrices (default)
sizeof(short) 2 sizeof(int) 4 sizeof(long) 8 sizeof(void*) 8 sizeof(PetscScalar) 8 sizeof(PetscInt) 4
Configure options: --LIBS=-lstdc++ --known-bits-per-byte=8 --known-has-attribute-aligned=1 --known-level1-dcache-assoc=8 --known-level1-dcache-linesize=64 --known-level1-dcache-size=32768 --known-memcmp-ok=1 --known-mklspblas-supports-zero-based=0 --known-mpi-c-double-complex=1 --known-mpi-int64_t=1 --known-mpi-long-double=1 --known-mpi-shared-libraries=0 --known-sdot-returns-double=0 --known-sizeof-MPI_Comm=4 --known-sizeof-MPI_Fint=4 --known-sizeof-char=1 --known-sizeof-double=8 --known-sizeof-float=4 --known-sizeof-int=4 --known-sizeof-long-long=8 --known-sizeof-long=8 --known-sizeof-short=2 --known-sizeof-size_t=8 --known-sizeof-void-p=8 --known-snrm2-returns-double=0 --with-batch=1 --with-blaslapack-dir=/opt/intel/compilers_and_libraries/linux/mkl/lib/intel64 --with-cc=cc --with-clib-autodetect=0 --with-cxx=CC --with-cxxlib-autodetect=0 --with-debugging=0 --with-fc=ftn --with-fortranlib-autodetect=0 --with-memalign=64 --with-mpiexec=aprun COPTFLAGS="-g -O3 -xMIC-AVX512" CXXOPTFLAGS="-g -O3 -xMIC-AVX512" FOPTFLAGS="-g -O3 -xMIC-AVX512" PETSC_ARCH=arch-theta-avx512-opt
-----------------------------------------
Libraries compiled on Thu Nov 30 10:39:46 2017 on thetalogin5 
Machine characteristics: Linux-4.4.74-92.38-default-x86_64-with-SuSE-12-x86_64
Using PETSc directory: /home/hongzh/Projects/petsc
Using PETSc arch: arch-theta-avx512-opt
-----------------------------------------

Using C compiler: cc  -fPIC  -g -O3 -xMIC-AVX512  ${COPTFLAGS} ${CFLAGS}
Using Fortran compiler: ftn  -fPIC -g -O3 -xMIC-AVX512   ${FOPTFLAGS} ${FFLAGS} 
-----------------------------------------

Using include paths: -I/home/hongzh/Projects/petsc/arch-theta-avx512-opt/include -I/home/hongzh/Projects/petsc/include -I/home/hongzh/Projects/petsc/include -I/home/hongzh/Projects/petsc/arch-theta-avx512-opt/include
-----------------------------------------

Using C linker: cc
Using Fortran linker: ftn
Using libraries: -Wl,-rpath,/home/hongzh/Projects/petsc/arch-theta-avx512-opt/lib -L/home/hongzh/Projects/petsc/arch-theta-avx512-opt/lib -lpetsc -Wl,-rpath,/opt/intel/compilers_and_libraries/linux/mkl/lib/intel64 -L/opt/intel/compilers_and_libraries/linux/mkl/lib/intel64 -lmkl_intel_lp64 -lmkl_sequential -lmkl_core -lpthread -lX11 -ldl -lstdc++
-----------------------------------------

