************************************************************************************************************************
***             WIDEN YOUR WINDOW TO 120 CHARACTERS.  Use 'enscript -r -fCourier9' to print this document            ***
************************************************************************************************************************

---------------------------------------------- PETSc Performance Summary: ----------------------------------------------

./ex5adj_avx512 on a arch-theta-avx512-opt named nid00000 with 32 processors, by hongzh Wed Nov  8 11:46:51 2017
Using Petsc Development GIT revision: v3.8-237-ga371b625d9  GIT Date: 2017-11-06 17:15:18 -0600

                         Max       Max/Min        Avg      Total 
Time (sec):           2.818e+01      1.00117   2.815e+01
Objects:              2.140e+02      1.00000   2.140e+02
Flop:                 1.161e+10      1.00000   1.161e+10  3.716e+11
Flop/sec:            4.125e+08      1.00117   4.125e+08  1.320e+10
MPI Messages:         4.205e+04      1.00000   4.205e+04  1.345e+06
MPI Message Lengths:  8.513e+07      1.00000   2.025e+03  2.724e+09
MPI Reductions:       4.424e+03      1.00000

Flop counting convention: 1 flop = 1 real number operation of type (multiply/divide/add/subtract)
                            e.g., VecAXPY() for real vectors of length N --> 2N flop
                            and VecAXPY() for complex vectors of length N --> 8N flop

Summary of Stages:   ----- Time ------  ----- Flop -----  --- Messages ---  -- Message Lengths --  -- Reductions --
                        Avg     %Total     Avg     %Total   counts   %Total     Avg         %Total   counts   %Total 
 0:      Main Stage: 2.8152e+01 100.0%  3.7158e+11 100.0%  1.345e+06 100.0%  2.025e+03      100.0%  4.423e+03 100.0% 

------------------------------------------------------------------------------------------------------------------------
See the 'Profiling' chapter of the users' manual for details on interpreting output.
Phase summary info:
   Count: number of times phase was executed
   Time and Flop: Max - maximum over all processors
                   Ratio - ratio of maximum to minimum over all processors
   Mess: number of messages sent
   Avg. len: average message length (bytes)
   Reduct: number of global reductions
   Global: entire computation
   Stage: stages of a computation. Set stages with PetscLogStagePush() and PetscLogStagePop().
      %T - percent time in this phase         %F - percent flop in this phase
      %M - percent messages in this phase     %L - percent message lengths in this phase
      %R - percent reductions in this phase
   Total Mflop/s: 10e-6 * (sum of flop over all processors)/(max time over all processors)
------------------------------------------------------------------------------------------------------------------------
Event                Count      Time (sec)     Flop                             --- Global ---  --- Stage ---   Total
                   Max Ratio  Max     Ratio   Max  Ratio  Mess   Avg len Reduct  %T %F %M %L %R  %T %F %M %L %R Mflop/s
------------------------------------------------------------------------------------------------------------------------

--- Event Stage 0: Main Stage

VecDot                60 1.0 1.2812e-02 1.1 7.86e+06 1.0 0.0e+00 0.0e+00 6.0e+01  0  0  0  0  1   0  0  0  0  1 19643
VecMDot             1692 1.0 7.8381e-01 1.0 8.50e+08 1.0 0.0e+00 0.0e+00 1.7e+03  3  7  0  0 38   3  7  0  0 38 34713
VecNorm             2012 1.0 2.3968e-01 1.0 1.99e+08 1.0 0.0e+00 0.0e+00 2.0e+03  1  2  0  0 45   1  2  0  0 45 26547
VecScale            1892 1.0 2.3822e-01 1.0 9.16e+07 1.0 0.0e+00 0.0e+00 0.0e+00  1  1  0  0  0   1  1  0  0  0 12298
VecCopy             1464 1.0 1.2390e-01 1.1 0.00e+00 0.0 0.0e+00 0.0e+00 0.0e+00  0  0  0  0  0   0  0  0  0  0     0
VecSet             13971 1.0 5.5485e-01 1.1 0.00e+00 0.0 0.0e+00 0.0e+00 0.0e+00  2  0  0  0  0   2  0  0  0  0     0
VecAXPY              260 1.0 3.6962e-02 1.0 2.82e+07 1.0 0.0e+00 0.0e+00 0.0e+00  0  0  0  0  0   0  0  0  0  0 24397
VecAYPX             8832 1.0 9.3306e-01 1.0 4.52e+08 1.0 0.0e+00 0.0e+00 0.0e+00  3  4  0  0  0   3  4  0  0  0 15508
VecAXPBYCZ          4496 1.0 6.9225e-01 1.0 9.20e+08 1.0 0.0e+00 0.0e+00 0.0e+00  2  8  0  0  0   2  8  0  0  0 42534
VecWAXPY              60 1.0 1.4139e-02 1.1 3.93e+06 1.0 0.0e+00 0.0e+00 0.0e+00  0  0  0  0  0   0  0  0  0  0  8900
VecMAXPY            1872 1.0 8.7017e-01 1.0 1.01e+09 1.0 0.0e+00 0.0e+00 0.0e+00  3  9  0  0  0   3  9  0  0  0 37254
VecPointwiseMult    8736 1.0 1.1519e+00 1.0 3.31e+08 1.0 0.0e+00 0.0e+00 0.0e+00  4  3  0  0  0   4  3  0  0  0  9191
VecScatterBegin    11106 1.0 6.7360e-01 1.0 0.00e+00 0.0 1.3e+06 2.0e+03 0.0e+00  2  0100100  0   2  0100100  0     0
VecScatterEnd      11106 1.0 5.7685e-01 1.2 0.00e+00 0.0 0.0e+00 0.0e+00 0.0e+00  2  0  0  0  0   2  0  0  0  0     0
VecReduceArith       120 1.0 1.2572e-02 1.1 1.57e+07 1.0 0.0e+00 0.0e+00 0.0e+00  0  0  0  0  0   0  0  0  0  0 40033
VecReduceComm         60 1.0 4.1170e-03 1.5 0.00e+00 0.0 0.0e+00 0.0e+00 6.0e+01  0  0  0  0  1   0  0  0  0  1     0
VecNormalize        1872 1.0 3.6896e-01 1.0 2.71e+08 1.0 0.0e+00 0.0e+00 1.9e+03  1  2  0  0 42   1  2  0  0 42 23480
MatMult             8376 1.0 9.6431e+00 1.0 7.13e+09 1.0 1.1e+06 2.4e+03 0.0e+00 34 61 80 93  0  34 61 80 93  0 23670
MatMultAdd          1104 1.0 1.6470e+00 1.0 2.03e+08 1.0 1.1e+05 5.8e+02 0.0e+00  6  2  8  2  0   6  2  8  2  0  3954
MatMultTranspose    1346 1.0 1.0806e+00 1.0 2.61e+08 1.0 1.3e+05 6.0e+02 0.0e+00  4  2 10  3  0   4  2 10  3  0  7740
MatResidual         1104 1.0 1.3390e+00 1.0 9.50e+08 1.0 1.4e+05 2.3e+03 0.0e+00  5  8 11 12  0   5  8 11 12  0 22694
MatAssemblyBegin     185 1.0 6.9007e-02 1.5 0.00e+00 0.0 0.0e+00 0.0e+00 3.7e+02  0  0  0  0  8   0  0  0  0  8     0
MatAssemblyEnd       185 1.0 4.0829e-01 1.0 0.00e+00 0.0 1.2e+03 3.3e+02 4.0e+01  1  0  0  0  1   1  0  0  0  1     0
DMCoarsen              2 1.0 3.6931e-03 1.0 0.00e+00 0.0 5.1e+02 1.5e+02 2.2e+01  0  0  0  0  0   0  0  0  0  0     0
DMCreateInterp         2 1.0 4.5340e-02 1.0 3.69e+05 1.0 9.6e+02 1.9e+02 5.0e+01  0  0  0  0  1   0  0  0  0  1   260
TSStep                20 1.0 2.7965e+01 1.0 1.16e+10 1.0 1.3e+06 2.0e+03 4.4e+03 99100100100100  99100100100100 13287
TSFunctionEval       100 1.0 1.0476e-01 1.0 5.24e+07 1.0 1.3e+04 2.3e+03 0.0e+00  0  0  1  1  0   0  0  1  1  0 16015
TSJacobianEval       180 1.0 6.7343e+00 1.0 4.90e+07 1.0 2.3e+04 1.3e+03 3.6e+02 24  0  2  1  8  24  0  2  1  8   233
SNESSolve             20 1.0 2.7664e+01 1.0 1.16e+10 1.0 1.3e+06 2.0e+03 4.4e+03 98100100100 99  98100100100 99 13418
SNESFunctionEval      80 1.0 1.0062e-01 1.0 5.77e+07 1.0 1.0e+04 2.3e+03 0.0e+00  0  0  1  1  0   0  0  1  1  0 18342
SNESJacobianEval     180 1.0 6.7373e+00 1.0 4.90e+07 1.0 2.3e+04 1.3e+03 3.6e+02 24  0  2  1  8  24  0  2  1  8   233
SNESLineSearch        60 1.0 2.6680e-01 1.0 1.73e+08 1.0 1.5e+04 2.7e+03 2.4e+02  1  1  1  2  5   1  1  1  2  5 20751
KSPGMRESOrthog      1692 1.0 1.5385e+00 1.0 1.70e+09 1.0 0.0e+00 0.0e+00 1.7e+03  5 15  0  0 38   5 15  0  0 38 35369
KSPSetUp             422 1.0 1.6895e-02 1.2 0.00e+00 0.0 0.0e+00 0.0e+00 2.8e+01  0  0  0  0  1   0  0  0  0  1     0
KSPSolve              60 1.0 2.2249e+01 1.0 1.14e+10 1.0 1.3e+06 2.0e+03 4.0e+03 79 98 98 97 90  79 98 98 97 90 16353
PCSetUp              240 1.0 2.3281e+00 1.0 7.27e+07 1.0 4.0e+04 7.2e+02 3.8e+02  8  1  3  1  9   8  1  3  1  9  1000
PCSetUpOnBlocks     2880 1.0 3.3404e-01 1.0 0.00e+00 0.0 0.0e+00 0.0e+00 0.0e+00  1  0  0  0  0   1  0  0  0  0     0
PCApply              552 1.0 1.8574e+01 1.0 9.85e+09 1.0 1.2e+06 2.0e+03 2.6e+03 66 85 90 89 58  66 85 90 89 58 16974
------------------------------------------------------------------------------------------------------------------------

Memory usage is given in bytes:

Object Type          Creations   Destructions     Memory  Descendants' Mem.
Reports information only for process 0.

--- Event Stage 0: Main Stage

              Vector   115            115     29793776     0.
      Vector Scatter    10             10       354784     0.
              Matrix    21             21     14361292     0.
    Distributed Mesh     4              4        20240     0.
           Index Set    20             20       206160     0.
   IS L to G Mapping     3              3       179400     0.
   Star Forest Graph     8              8         6464     0.
     Discrete System     4              4         3588     0.
             TSAdapt     1              1         1216     0.
                  TS     1              1         2040     0.
                DMTS     1              1          736     0.
                SNES     1              1         1364     0.
      SNESLineSearch     1              1          992     0.
              DMSNES     4              4         2656     0.
       Krylov Solver     9              9        86120     0.
     DMKSP interface     3              3         1944     0.
      Preconditioner     7              7         6672     0.
              Viewer     1              0            0     0.
========================================================================================================================
Average time to get PetscTime(): 2.14577e-07
Average time for MPI_Barrier(): 6.19888e-06
Average time for zero size MPI_Send(): 3.38182e-05
#PETSc Option Table entries:
-da_grid_x 1024
-da_grid_y 1024
-dm_mat_type sell
-forwardonly
-log_view :logs_theta/ex5adj_avx512_theta_mg_sell_fwdonly_xy1024_n32.log
-malloc_test
-mat_no_inode
-mg_coarse_pc_type bjacobi
-mg_coarse_sub_pc_type jacobi
-mg_levels_pc_type bjacobi
-mg_levels_sub_pc_type jacobi
-pc_mg_levels 3
-pc_type mg
-ts_dt 1
-ts_max_steps 20
#End of PETSc Option Table entries
Compiled without FORTRAN kernels
Compiled with full precision matrices (default)
sizeof(short) 2 sizeof(int) 4 sizeof(long) 8 sizeof(void*) 8 sizeof(PetscScalar) 8 sizeof(PetscInt) 4
Configure options: --LIBS=-lstdc++ --known-bits-per-byte=8 --known-has-attribute-aligned=1 --known-level1-dcache-assoc=8 --known-level1-dcache-linesize=64 --known-level1-dcache-size=32768 --known-memcmp-ok=1 --known-mklspblas-supports-zero-based=0 --known-mpi-c-double-complex=1 --known-mpi-int64_t=1 --known-mpi-long-double=1 --known-mpi-shared-libraries=0 --known-sdot-returns-double=0 --known-sizeof-MPI_Comm=4 --known-sizeof-MPI_Fint=4 --known-sizeof-char=1 --known-sizeof-double=8 --known-sizeof-float=4 --known-sizeof-int=4 --known-sizeof-long-long=8 --known-sizeof-long=8 --known-sizeof-short=2 --known-sizeof-size_t=8 --known-sizeof-void-p=8 --known-snrm2-returns-double=0 --with-batch=1 --with-blaslapack-dir=/opt/intel/compilers_and_libraries/linux/mkl/lib/intel64 --with-cc=cc --with-clib-autodetect=0 --with-cxx=CC --with-cxxlib-autodetect=0 --with-debugging=0 --with-fc=ftn --with-fortranlib-autodetect=0 --with-memalign=64 --with-mpiexec=aprun COPTFLAGS="-g -O3 -xMIC-AVX512" CXXOPTFLAGS="-g -O3 -xMIC-AVX512" FOPTFLAGS="-g -O3 -xMIC-AVX512" PETSC_ARCH=arch-theta-avx512-opt
-----------------------------------------
Libraries compiled on Tue Nov  7 15:05:05 2017 on thetalogin4 
Machine characteristics: Linux-4.4.74-92.38-default-x86_64-with-SuSE-12-x86_64
Using PETSc directory: /home/hongzh/Projects/petsc
Using PETSc arch: arch-theta-avx512-opt
-----------------------------------------

Using C compiler: cc  -fPIC  -g -O3 -xMIC-AVX512  ${COPTFLAGS} ${CFLAGS}
Using Fortran compiler: ftn  -fPIC -g -O3 -xMIC-AVX512   ${FOPTFLAGS} ${FFLAGS} 
-----------------------------------------

Using include paths: -I/home/hongzh/Projects/petsc/arch-theta-avx512-opt/include -I/home/hongzh/Projects/petsc/include -I/home/hongzh/Projects/petsc/include -I/home/hongzh/Projects/petsc/arch-theta-avx512-opt/include
-----------------------------------------

Using C linker: cc
Using Fortran linker: ftn
Using libraries: -Wl,-rpath,/home/hongzh/Projects/petsc/arch-theta-avx512-opt/lib -L/home/hongzh/Projects/petsc/arch-theta-avx512-opt/lib -lpetsc -Wl,-rpath,/opt/intel/compilers_and_libraries/linux/mkl/lib/intel64 -L/opt/intel/compilers_and_libraries/linux/mkl/lib/intel64 -lmkl_intel_lp64 -lmkl_sequential -lmkl_core -lpthread -lX11 -ldl -lstdc++
-----------------------------------------

