************************************************************************************************************************
***             WIDEN YOUR WINDOW TO 120 CHARACTERS.  Use 'enscript -r -fCourier9' to print this document            ***
************************************************************************************************************************

---------------------------------------------- PETSc Performance Summary: ----------------------------------------------

./ex5adj on a arch-theta-opt named nid00000 with 16 processors, by hongzh Wed Nov  8 11:52:54 2017
Using Petsc Development GIT revision: v3.8-237-ga371b625d9  GIT Date: 2017-11-06 17:15:18 -0600

                         Max       Max/Min        Avg      Total 
Time (sec):           5.075e+01      1.00015   5.074e+01
Objects:              2.140e+02      1.00000   2.140e+02
Flop:                 2.322e+10      1.00000   2.322e+10  3.716e+11
Flop/sec:            4.577e+08      1.00015   4.577e+08  7.323e+09
MPI Messages:         4.205e+04      1.00000   4.205e+04  6.727e+05
MPI Message Lengths:  1.135e+08      1.00000   2.699e+03  1.816e+09
MPI Reductions:       4.424e+03      1.00000

Flop counting convention: 1 flop = 1 real number operation of type (multiply/divide/add/subtract)
                            e.g., VecAXPY() for real vectors of length N --> 2N flop
                            and VecAXPY() for complex vectors of length N --> 8N flop

Summary of Stages:   ----- Time ------  ----- Flop -----  --- Messages ---  -- Message Lengths --  -- Reductions --
                        Avg     %Total     Avg     %Total   counts   %Total     Avg         %Total   counts   %Total 
 0:      Main Stage: 5.0737e+01 100.0%  3.7158e+11 100.0%  6.727e+05 100.0%  2.699e+03      100.0%  4.423e+03 100.0% 

------------------------------------------------------------------------------------------------------------------------
See the 'Profiling' chapter of the users' manual for details on interpreting output.
Phase summary info:
   Count: number of times phase was executed
   Time and Flop: Max - maximum over all processors
                   Ratio - ratio of maximum to minimum over all processors
   Mess: number of messages sent
   Avg. len: average message length (bytes)
   Reduct: number of global reductions
   Global: entire computation
   Stage: stages of a computation. Set stages with PetscLogStagePush() and PetscLogStagePop().
      %T - percent time in this phase         %F - percent flop in this phase
      %M - percent messages in this phase     %L - percent message lengths in this phase
      %R - percent reductions in this phase
   Total Mflop/s: 10e-6 * (sum of flop over all processors)/(max time over all processors)
------------------------------------------------------------------------------------------------------------------------
Event                Count      Time (sec)     Flop                             --- Global ---  --- Stage ---   Total
                   Max Ratio  Max     Ratio   Max  Ratio  Mess   Avg len Reduct  %T %F %M %L %R  %T %F %M %L %R Mflop/s
------------------------------------------------------------------------------------------------------------------------

--- Event Stage 0: Main Stage

VecDot                60 1.0 2.1378e-02 1.1 1.57e+07 1.0 0.0e+00 0.0e+00 6.0e+01  0  0  0  0  1   0  0  0  0  1 11772
VecMDot             1692 1.0 1.3793e+00 1.0 1.70e+09 1.0 0.0e+00 0.0e+00 1.7e+03  3  7  0  0 38   3  7  0  0 38 19726
VecNorm             2012 1.0 3.6749e-01 1.1 3.98e+08 1.0 0.0e+00 0.0e+00 2.0e+03  1  2  0  0 45   1  2  0  0 45 17314
VecScale            1892 1.0 3.7474e-01 1.0 1.83e+08 1.0 0.0e+00 0.0e+00 0.0e+00  1  1  0  0  0   1  1  0  0  0  7818
VecCopy             1464 1.0 2.3552e-01 1.0 0.00e+00 0.0 0.0e+00 0.0e+00 0.0e+00  0  0  0  0  0   0  0  0  0  0     0
VecSet             13971 1.0 1.0312e+00 1.1 0.00e+00 0.0 0.0e+00 0.0e+00 0.0e+00  2  0  0  0  0   2  0  0  0  0     0
VecAXPY              260 1.0 6.7503e-02 1.0 5.64e+07 1.0 0.0e+00 0.0e+00 0.0e+00  0  0  0  0  0   0  0  0  0  0 13359
VecAYPX             8832 1.0 1.8520e+00 1.0 9.04e+08 1.0 0.0e+00 0.0e+00 0.0e+00  4  4  0  0  0   4  4  0  0  0  7813
VecAXPBYCZ          4496 1.0 1.3381e+00 1.0 1.84e+09 1.0 0.0e+00 0.0e+00 0.0e+00  3  8  0  0  0   3  8  0  0  0 22004
VecWAXPY              60 1.0 2.7776e-02 1.1 7.86e+06 1.0 0.0e+00 0.0e+00 0.0e+00  0  0  0  0  0   0  0  0  0  0  4530
VecMAXPY            1872 1.0 1.6956e+00 1.0 2.03e+09 1.0 0.0e+00 0.0e+00 0.0e+00  3  9  0  0  0   3  9  0  0  0 19118
VecPointwiseMult    8736 1.0 2.2636e+00 1.0 6.62e+08 1.0 0.0e+00 0.0e+00 0.0e+00  4  3  0  0  0   4  3  0  0  0  4677
VecScatterBegin    11106 1.0 7.7811e-01 1.1 0.00e+00 0.0 6.7e+05 2.7e+03 0.0e+00  2  0100100  0   2  0100100  0     0
VecScatterEnd      11106 1.0 5.6760e-01 1.1 0.00e+00 0.0 0.0e+00 0.0e+00 0.0e+00  1  0  0  0  0   1  0  0  0  0     0
VecReduceArith       120 1.0 2.1611e-02 1.0 3.15e+07 1.0 0.0e+00 0.0e+00 0.0e+00  0  0  0  0  0   0  0  0  0  0 23290
VecReduceComm         60 1.0 4.4184e-03 1.4 0.00e+00 0.0 0.0e+00 0.0e+00 6.0e+01  0  0  0  0  1   0  0  0  0  1     0
VecNormalize        1872 1.0 6.2364e-01 1.0 5.41e+08 1.0 0.0e+00 0.0e+00 1.9e+03  1  2  0  0 42   1  2  0  0 42 13892
MatMult             8376 1.0 1.7990e+01 1.0 1.43e+10 1.0 5.4e+05 3.1e+03 0.0e+00 35 61 80 93  0  35 61 80 93  0 12688
MatMultAdd          1104 1.0 3.1797e+00 1.0 4.07e+08 1.0 5.3e+04 7.7e+02 0.0e+00  6  2  8  2  0   6  2  8  2  0  2048
MatMultTranspose    1346 1.0 2.0091e+00 1.0 5.23e+08 1.0 6.5e+04 7.9e+02 0.0e+00  4  2 10  3  0   4  2 10  3  0  4163
MatResidual         1104 1.0 2.5167e+00 1.0 1.90e+09 1.0 7.1e+04 3.1e+03 0.0e+00  5  8 11 12  0   5  8 11 12  0 12075
MatAssemblyBegin     185 1.0 7.4119e-02 1.6 0.00e+00 0.0 0.0e+00 0.0e+00 3.7e+02  0  0  0  0  8   0  0  0  0  8     0
MatAssemblyEnd       185 1.0 7.9939e-01 1.0 0.00e+00 0.0 5.8e+02 4.4e+02 4.0e+01  2  0  0  0  1   2  0  0  0  1     0
DMCoarsen              2 1.0 4.3001e-03 1.0 0.00e+00 0.0 2.6e+02 1.9e+02 2.2e+01  0  0  0  0  0   0  0  0  0  0     0
DMCreateInterp         2 1.0 7.0105e-02 1.0 7.37e+05 1.0 4.8e+02 2.6e+02 5.0e+01  0  0  0  0  1   0  0  0  0  1   168
TSStep                20 1.0 5.0549e+01 1.0 2.32e+10 1.0 6.7e+05 2.7e+03 4.4e+03100100100100100 100100100100100  7351
TSFunctionEval       100 1.0 1.8389e-01 1.0 1.05e+08 1.0 6.4e+03 3.1e+03 0.0e+00  0  0  1  1  0   0  0  1  1  0  9124
TSJacobianEval       180 1.0 1.3386e+01 1.0 9.81e+07 1.0 1.2e+04 1.8e+03 3.6e+02 26  0  2  1  8  26  0  2  1  8   117
SNESSolve             20 1.0 5.0093e+01 1.0 2.32e+10 1.0 6.7e+05 2.7e+03 4.4e+03 99100100100 99  99100100100 99  7410
SNESFunctionEval      80 1.0 1.8120e-01 1.0 1.15e+08 1.0 5.1e+03 3.1e+03 0.0e+00  0  0  1  1  0   0  0  1  1  0 10185
SNESJacobianEval     180 1.0 1.3389e+01 1.0 9.81e+07 1.0 1.2e+04 1.8e+03 3.6e+02 26  0  2  1  8  26  0  2  1  8   117
SNESLineSearch        60 1.0 4.8109e-01 1.0 3.46e+08 1.0 7.7e+03 3.6e+03 2.4e+02  1  1  1  2  5   1  1  1  2  5 11508
KSPGMRESOrthog      1692 1.0 2.8251e+00 1.0 3.40e+09 1.0 0.0e+00 0.0e+00 1.7e+03  6 15  0  0 38   6 15  0  0 38 19262
KSPSetUp             422 1.0 2.0016e-02 1.0 0.00e+00 0.0 0.0e+00 0.0e+00 2.8e+01  0  0  0  0  1   0  0  0  0  1     0
KSPSolve              60 1.0 3.9372e+01 1.0 2.27e+10 1.0 6.6e+05 2.7e+03 4.0e+03 78 98 98 97 90  78 98 98 97 90  9241
PCSetUp              240 1.0 4.5229e+00 1.0 1.45e+08 1.0 2.0e+04 9.7e+02 3.8e+02  9  1  3  1  9   9  1  3  1  9   515
PCSetUpOnBlocks     2880 1.0 6.5501e-01 1.0 0.00e+00 0.0 0.0e+00 0.0e+00 0.0e+00  1  0  0  0  0   1  0  0  0  0     0
PCApply              552 1.0 3.2418e+01 1.0 1.97e+10 1.0 6.1e+05 2.7e+03 2.6e+03 64 85 90 89 58  64 85 90 89 58  9725
------------------------------------------------------------------------------------------------------------------------

Memory usage is given in bytes:

Object Type          Creations   Destructions     Memory  Descendants' Mem.
Reports information only for process 0.

--- Event Stage 0: Main Stage

              Vector   115            115     59367152     0.
      Vector Scatter    10             10       698848     0.
              Matrix    21             21     28652108     0.
    Distributed Mesh     4              4        20240     0.
           Index Set    20             20       384336     0.
   IS L to G Mapping     3              3       353224     0.
   Star Forest Graph     8              8         6464     0.
     Discrete System     4              4         3588     0.
             TSAdapt     1              1         1216     0.
                  TS     1              1         2040     0.
                DMTS     1              1          736     0.
                SNES     1              1         1364     0.
      SNESLineSearch     1              1          992     0.
              DMSNES     4              4         2656     0.
       Krylov Solver     9              9        86120     0.
     DMKSP interface     3              3         1944     0.
      Preconditioner     7              7         6672     0.
              Viewer     1              0            0     0.
========================================================================================================================
Average time to get PetscTime(): 9.53674e-08
Average time for MPI_Barrier(): 3.57628e-06
Average time for zero size MPI_Send(): 6.31362e-05
#PETSc Option Table entries:
-da_grid_x 1024
-da_grid_y 1024
-dm_mat_type sell
-forwardonly
-log_view :logs_theta/ex5adj_theta_mg_sell_fwdonly_xy1024_n16.log
-malloc_test
-mat_no_inode
-mg_coarse_pc_type bjacobi
-mg_coarse_sub_pc_type jacobi
-mg_levels_pc_type bjacobi
-mg_levels_sub_pc_type jacobi
-pc_mg_levels 3
-pc_type mg
-ts_dt 1
-ts_max_steps 20
#End of PETSc Option Table entries
Compiled without FORTRAN kernels
Compiled with full precision matrices (default)
sizeof(short) 2 sizeof(int) 4 sizeof(long) 8 sizeof(void*) 8 sizeof(PetscScalar) 8 sizeof(PetscInt) 4
Configure options: --LIBS=-lstdc++ --known-bits-per-byte=8 --known-has-attribute-aligned=1 --known-level1-dcache-assoc=8 --known-level1-dcache-linesize=64 --known-level1-dcache-size=32768 --known-memcmp-ok=1 --known-mklspblas-supports-zero-based=0 --known-mpi-c-double-complex=1 --known-mpi-int64_t=1 --known-mpi-long-double=1 --known-mpi-shared-libraries=1 --known-sdot-returns-double=0 --known-sizeof-MPI_Comm=4 --known-sizeof-MPI_Fint=4 --known-sizeof-char=1 --known-sizeof-double=8 --known-sizeof-float=4 --known-sizeof-int=4 --known-sizeof-long-long=8 --known-sizeof-long=8 --known-sizeof-short=2 --known-sizeof-size_t=8 --known-sizeof-void-p=8 --known-snrm2-returns-double=0 --with-batch=1 --with-blaslapack-dir=/opt/intel/compilers_and_libraries/linux/mkl/lib/intel64 --with-cc=cc --with-clib-autodetect=0 --with-cxx=CC --with-cxxlib-autodetect=0 --with-debugging=0 --with-fc=ftn --with-fortranlib-autodetect=0 --with-memalign=64 --with-mpiexec=aprun COPTFLAGS="-g -O3" CXXOPTFLAGS="-g -O3" FOPTFLAGS="-g -O3" PETSC_ARCH=arch-theta-opt
-----------------------------------------
Libraries compiled on Tue Nov  7 15:20:01 2017 on thetalogin4 
Machine characteristics: Linux-4.4.74-92.38-default-x86_64-with-SuSE-12-x86_64
Using PETSc directory: /home/hongzh/Projects/petsc
Using PETSc arch: arch-theta-opt
-----------------------------------------

Using C compiler: cc  -fPIC  -g -O3  ${COPTFLAGS} ${CFLAGS}
Using Fortran compiler: ftn  -fPIC -g -O3   ${FOPTFLAGS} ${FFLAGS} 
-----------------------------------------

Using include paths: -I/home/hongzh/Projects/petsc/arch-theta-opt/include -I/home/hongzh/Projects/petsc/include -I/home/hongzh/Projects/petsc/include -I/home/hongzh/Projects/petsc/arch-theta-opt/include
-----------------------------------------

Using C linker: cc
Using Fortran linker: ftn
Using libraries: -Wl,-rpath,/home/hongzh/Projects/petsc/arch-theta-opt/lib -L/home/hongzh/Projects/petsc/arch-theta-opt/lib -lpetsc -Wl,-rpath,/opt/intel/compilers_and_libraries/linux/mkl/lib/intel64 -L/opt/intel/compilers_and_libraries/linux/mkl/lib/intel64 -lmkl_intel_lp64 -lmkl_sequential -lmkl_core -lpthread -lX11 -ldl -lstdc++
-----------------------------------------

